Project 1
…
covid2 %>% select(Country, change, Date) %>% arrange(desc(change))

## # A tibble: 3,726 x 3
## # Groups:   Country [69]
##    Country change Date      
##    <chr>    <dbl> <chr>     
##  1 China     3886 2020-02-05
##  2 China     3886 2020-02-05
##  3 China     3694 2020-02-06
##  4 China     3694 2020-02-06
##  5 China     3233 2020-02-04
##  6 China     3233 2020-02-04
##  7 China     3143 2020-02-07
##  8 China     3143 2020-02-07
##  9 China     2973 2020-02-10
## 10 China     2973 2020-02-10
## # … with 3,716 more rows
…
covid2 %>% na.omit %>% group_by(Date) %>% summarize_all(mean) 

## # A tibble: 27 x 11
##    Date  Total Deaths CCLClose SP500Close Country  Cases mortalityrate change
##    <chr> <dbl>  <dbl>    <dbl>      <dbl>   <dbl>  <dbl>         <dbl>  <dbl>
##  1 2020…   314     17     49.9      3322.      NA   4.55          5.41  0.464
##  2 2020…   581     18     49.5      3326.      NA   8.42          3.10  3.87 
##  3 2020…   846     26     47.5      3295.      NA  12.3           3.07  3.84 
##  4 2020…  2798     82     45.3      3244.      NA  40.6           2.93 11.4  
##  5 2020…  4593    131     46.5      3276.      NA  66.6           2.85 26.0  
##  6 2020…  6065    133     46.5      3273.      NA  87.9           2.19 21.3  
##  7 2020…  7818    171     44.8      3284.      NA 113.            2.19 25.4  
##  8 2020…  9826    213     43.5      3226.      NA 142.            2.17 29.1  
##  9 2020… 17391    426     42.8      3249.      NA 252.            2.45 41.1  
## 10 2020… 20630    492     43.6      3298.      NA 299.            2.38 46.9  
## # … with 17 more rows, and 2 more variables: Stock <dbl>, stockchange <dbl>

covid2 %>% ungroup %>%summarize( n(),n_distinct(Country),n_distinct(Date), mean(Cases), mean(Deaths), min(Deaths),max(Deaths), var(Deaths), max(CCLClose), min(CCLClose), max(SP500Close), min(SP500Close))

## # A tibble: 1 x 12
##   `n()` `n_distinct(Cou… `n_distinct(Dat… `mean(Cases)` `mean(Deaths)`
##   <int>            <int>            <int>         <dbl>          <dbl>
## 1  3726               69               27          584.           1192
## # … with 7 more variables: `min(Deaths)` <dbl>, `max(Deaths)` <dbl>,
## #   `var(Deaths)` <dbl>, `max(CCLClose)` <dbl>, `min(CCLClose)` <dbl>,
## #   `max(SP500Close)` <dbl>, `min(SP500Close)` <dbl>

covid2 %>% group_by(Country) %>% summarize(mean_cases=mean(change), sd_cases=sd(change), var(change), min_cases=min(Cases), max_cases=max(Cases)) %>% arrange(desc(max_cases))

## # A tibble: 69 x 6
##    Country             mean_cases sd_cases `var(change)` min_cases max_cases
##    <chr>                    <dbl>    <dbl>         <dbl>     <dbl>     <dbl>
##  1 China                  1597.    1161.      1347901.         309     78824
##  2 South.Korea              71.4    152.        22978.           1      2337
##  3 Other..Cruise.ship.      17.3     27.4         752.           0       705
##  4 Italy                    21.4     54.3        2952.           0       650
##  5 Iran                      8.22    22.0         484.           0       245
##  6 Japan                     5        6.50         42.3          1       210
##  7 Singapore                 2.11     1.93          3.72         0        96
##  8 Hong.Kong                 2.96     2.43          5.92         0        93
##  9 United.States             1.33     3.56         12.7          0        59
## 10 Kuwait                    1.59     5.96         35.6          0        43
## # … with 59 more rows
…
